[
    {
        "stateArray": {
            "-name": "states_array",
            "item": [
                "Maharashtra",
                "Karnataka",
                "Andhra Pradesh",
                "Gujarat",
                "Andaman and Nicobar Island (UT)",
                "Arunachal Pradesh",
                "Assam",
                "Bihar",
                "Chandigarh (UT)",
                "Chhattisgarh",
                "Dadra and Nagar Haveli (UT)",
                "Daman and Diu (UT)",
                "Delhi (NCT)",
                "Goa",
                "Haryana",
                "Himachal Pradesh",
                "Jammu and Kashmir",
                "Jharkhand",
                "Kerala",
                "Lakshadweep (UT)",
                "Madhya Pradesh",
                "Manipur",
                "Meghalaya",
                "Mizoram",
                "Nagaland",
                "Odisha",
                "Puducherry (UT)",
                "Punjab",
                "Rajasthan",
                "Sikkim",
                "Tamil Nadu",
                "Telangana",
                "Tripura",
                "Uttar Pradesh",
                "Uttarakhand",
                "West Bengal"
            ]
        }
    }
]